<?xml version="1.0" encoding="utf-8"?>
<!-- Generator: Adobe Illustrator 21.1.0, SVG Export Plug-In . SVG Version: 6.00 Build 0)  -->
<svg version="1.1" id="Calque_1" xmlns="http://www.w3.org/2000/svg" xmlns:xlink="http://www.w3.org/1999/xlink" x="0px" y="0px"
	 viewBox="0 0 242 109.3" style="enable-background:new 0 0 242 109.3;" xml:space="preserve">
<style type="text/css">
	.st0{fill:#F0C2A8;}
	.st1{fill:#F8E3D6;}
	.st2{fill:none;stroke:#FCF1EB;stroke-width:1.250000e-02;}
	.st3{fill:none;stroke:#F8E3D6;stroke-width:1.250000e-02;}
	.st4{fill:#E39067;}
	.st5{fill:none;stroke:#F2C9B2;stroke-width:2.500000e-02;}
	.st6{fill:none;stroke:#E39067;stroke-width:2.500000e-02;}
	.st7{fill:#FFFFFF;}
	.st8{fill:none;stroke:#FFFFFF;stroke-width:1.500000e-02;}
</style>
<g id="BG">
</g>
<g id="soleil">
	<circle class="st0" cx="91.3" cy="43.1" r="22.8"/>
</g>
<g id="été">
	<g>
		<path class="st1" d="M42.8,102c0,0,0.3,1.3-1-0.2l-1.3-1l-1.3-0.4l-0.6-1c0,0,0.3-0.4,2.5-2.4s6.3-5.8,14.6-11.9
			c0,0,1.6-1.3,4.4-3.3s6.8-4.6,11.7-7.3c0,0,4.4-2.4,11.2-5.7c3.5-1.6,7.4-3.4,11.7-5.5c4.3-2,8.9-4.2,13.8-6.2
			c2.4-1,4.9-1.9,7.4-2.7c2.4-0.8,4.9-1.5,7.3-2.2c4.8-1.4,9.3-2.6,13.4-3.5c8.1-1.9,14.2-2.7,15.7-2.8c0,0-3.1,0.4-7.8,1.3
			c-4.7,0.9-10.9,2.3-17.1,4c-3.1,0.8-6.2,1.7-9.2,2.7c-2.9,0.9-5.8,1.8-8.2,2.8c-4.9,1.9-8.2,3.5-8.9,3.9c0,0,2.7-1.2,7-2.9
			c2.1-0.8,4.7-1.8,7.5-2.6c2.7-0.9,5.7-1.7,8.7-2.5c6-1.7,12.1-3.1,17.1-4c4.9-0.9,8.6-1.4,9.5-1.4c0,0-2.9,0.4-7.2,1.3
			c-4.3,0.8-10.1,2.2-15.9,3.8c-2.9,0.8-5.8,1.7-8.6,2.5c-2.8,0.9-5.4,1.8-7.7,2.7c-4.6,1.8-7.9,3.5-8.7,4.1c0,0,0.6-0.3,1.7-0.7
			c1.1-0.5,2.6-1.1,4.5-1.9c1.9-0.7,4.2-1.6,6.7-2.3c2.5-0.8,5.1-1.5,7.8-2.3c5.4-1.5,11.1-2.8,15.7-3.7c4.6-0.9,8.2-1.4,9.5-1.4
			c0,0-2,0.3-4.3,0.7s-4.8,0.9-5.8,1.3c1.2-0.2,2.5-0.4,3.7-0.6c-2,0.4-4,0.9-5.9,1.4l-3.5,0.7c0,0,2.3-0.5,4.8-0.9
			c2.4-0.4,5-0.8,5.3-0.7c0,0,1-0.3,0-0.2c-1,0.2-4.2,0.7-12.5,3.1c0,0-2.5,0.5-7.1,1.8c-2.3,0.7-5.1,1.5-8.4,2.6
			c-3.3,1.1-6.9,2.6-11,4.5c-4,1.9-8.4,4.1-13.2,6.5s-10,5-15.3,8.1C64.9,83.4,53.5,91.5,42.8,102z"/>
		<path class="st2" d="M37.9,99.3c0,0,1.2-1,3.2-2.9c2-1.8,5-4.3,8.6-7.2c7.3-5.7,17.5-12.6,28.2-18.3c0,0,2.9-1.5,7.5-3.6
			c4.5-2,10.4-5,16.7-7.9c3.2-1.4,6.4-2.8,9.6-4c3.3-1.2,6.3-2.1,9-3c5.5-1.7,9.7-2.8,11-3.1c0,0,3.7-1,8.5-2s10.8-2.1,15.3-2.5"/>
		<path class="st3" d="M102.2,59.4c-1,0.4-3.5,1.6-6.7,3.1c-3.2,1.5-7.1,3.4-10.9,5.2c-3.9,1.8-7.5,3.7-10.2,5.2
			c-1.4,0.7-2.5,1.3-3.2,1.8c-0.8,0.4-1.2,0.7-1.2,0.7c-2.8,1.6-6.3,3.7-9.9,6.2c-3.6,2.4-7.3,5.2-10.7,7.9c-3.3,2.7-6.2,5.2-8.2,7
			c-2,1.9-3.3,3.1-3.3,3.1"/>
		<path class="st3" d="M103.8,60.4c0,0,2.1-1,5.5-2.3c1.7-0.7,3.7-1.4,6-2.2c2.2-0.7,4.6-1.5,7.1-2.2c5-1.5,10.2-2.8,14.8-3.8
			c4.5-1,8.3-1.7,10.4-2"/>
		<path class="st2" d="M95.3,66.9c0,0,2.4-1.1,6.1-2.8c3.7-1.7,8.7-3.8,13.9-5.6c5.3-1.7,10.7-3.2,15.1-4.3c4.4-1.1,7.6-1.8,8.5-1.9
			"/>
	</g>
</g>
<g id="hiver">
	<g>
		<path class="st4" d="M162.5,65.7c0,0,1-2.3,0.8,1.7l0.2,3.2l0.8,2.4l-0.4,2.3c0,0-0.6,0.1-4.7,0.2c-2,0-5,0.1-9-0.2
			c-2-0.2-4.4-0.3-7.1-0.6c-2.7-0.4-5.7-0.8-9.1-1.3c0,0-0.2,0-0.5,0s-0.8-0.1-1.4-0.2c-1.3-0.2-3.1-0.5-5.4-0.8
			c-2.3-0.4-5-0.9-8-1.7c-1.5-0.4-3.1-0.8-4.8-1.3c-0.8-0.2-1.7-0.5-2.5-0.7c-0.9-0.3-1.7-0.6-2.6-0.9c0,0-1.6-0.6-4.4-1.6
			c-1.4-0.5-3.1-1.1-5-1.8c-1.9-0.8-4.1-1.6-6.4-2.6c-9.4-3.9-21.8-9.6-33.9-16.4C47,38.6,35.2,30.8,26.3,24.2
			c-9-6.6-15.1-12-16.5-13.6c0,0,0.8,0.7,2.2,1.9c0.7,0.6,1.5,1.3,2.5,2.1c1,0.8,2.1,1.7,3.4,2.7c1.2,1,2.6,2.1,4,3.2
			c1.5,1.1,3,2.2,4.6,3.4c1.6,1.2,3.2,2.5,5,3.7c1.7,1.2,3.5,2.4,5.3,3.7l2.7,1.8c0.9,0.6,1.8,1.2,2.7,1.8c1.8,1.2,3.6,2.3,5.3,3.4
			c1.7,1.1,3.5,2.1,5.1,3.1c1.7,1,3.2,1.9,4.7,2.8c6,3.4,10.4,5.6,11.4,6c0,0-3.5-2-8.8-4.9c-2.6-1.5-5.7-3.4-8.9-5.4
			c-3.3-2-6.7-4.3-10.1-6.6s-6.8-4.8-10.1-7.1c-3.2-2.4-6.2-4.7-8.8-6.8c-2.6-2.1-4.8-4-6.4-5.5c-1.7-1.5-2.7-2.6-3.1-3.1
			c0,0,0.7,0.6,2,1.7c1.3,1.1,3.2,2.6,5.5,4.4c1.2,0.9,2.4,1.9,3.7,2.9c1.4,1,2.8,2.1,4.3,3.2s3,2.3,4.7,3.4
			c1.6,1.1,3.3,2.2,4.9,3.4c6.7,4.5,13.7,8.8,19.5,11.9c2.8,1.6,5.4,2.9,7.4,3.8c2,0.9,3.5,1.5,4.2,1.7c0,0-3.1-1.8-7.8-4.4
			C56.2,40,50,36.2,43.8,31.9c-6.2-4.2-12.4-8.8-17.2-12.8c-2.5-1.9-4.5-3.8-6.2-5.3c-1.6-1.5-2.8-2.6-3.4-3.3c0,0,2.1,1.7,4.4,3.7
			c1.2,1,2.4,2,3.6,2.9c1.1,0.8,2.1,1.5,2.8,1.9c-1.3-1.1-2.6-2.2-3.8-3.3c2.1,1.6,4.4,3.2,6.6,4.7c1.2,1,2.4,2,3.6,3
			c0,0-0.6-0.5-1.5-1.3c-0.9-0.8-2.1-1.8-3.4-2.9c-1.2-1.1-2.5-2.2-3.5-3.1c-1-0.9-1.6-1.6-1.7-1.9c0,0-1.2-0.7-0.2,0.2
			c0.5,0.5,1.6,1.4,3.8,2.9c1.1,0.8,2.4,1.7,4.1,2.9c0.8,0.6,1.7,1.2,2.7,1.9c1,0.7,2.1,1.4,3.3,2.1c0,0,0.7,0.5,2,1.5
			s3.3,2.4,5.9,4.1c2.7,1.7,5.9,3.9,9.9,6.2c2,1.2,4.1,2.4,6.4,3.7c2.3,1.2,4.8,2.5,7.4,3.9c10.5,5.3,23.8,11,39.5,15.5
			c7.8,2.3,16.4,4,25.4,5.4c2.3,0.3,4.5,0.5,6.9,0.7c1.2,0.1,2.3,0.2,3.5,0.3s2.3,0.1,3.5,0.1c2.4,0.1,4.7,0.1,7.1,0.2
			C157.7,65.9,160.1,65.8,162.5,65.7z"/>
		<path class="st5" d="M164.8,76.4c0,0-2.1,0-5.8-0.1c-0.9,0-1.9,0-3,0c-0.6,0-1.1,0-1.7,0c-0.6,0-1.2-0.1-1.8-0.1
			c-2.5-0.2-5.4-0.4-8.5-0.7c-3.1-0.4-6.4-0.9-10-1.4c-3.5-0.6-7.2-1.4-11-2.1c-3.8-0.9-7.6-1.9-11.5-2.9c-3.9-1.1-7.8-2.4-11.7-3.6
			c0,0-4.1-1.6-10.4-4.1c-3.1-1.4-6.7-3-10.6-4.7c-1.9-0.9-3.9-1.9-5.9-2.9s-4.1-2-6.1-3.1c-4.1-2.2-8.3-4.3-12.1-6.6
			c-1.9-1.1-3.8-2.2-5.7-3.3c-1.8-1.1-3.5-2.2-5.1-3.2s-3.1-2-4.5-2.8c-1.4-0.9-2.6-1.8-3.7-2.5c-2.2-1.5-3.8-2.6-4.5-3.1
			c0,0-1.1-0.7-2.8-1.9c-1.7-1.2-4.1-3-6.7-4.9c-2.6-2-5.5-4.4-8.3-6.6C10.7,13.4,8,11,5.9,8.9"/>
		<path class="st6" d="M66.5,50.4c2.4,1.5,13.3,6.9,23.8,11.2c2.7,1,5.3,2.1,7.7,3c2.4,1,4.7,1.7,6.7,2.4c1.9,0.7,3.6,1.2,4.7,1.6
			c0.6,0.2,1,0.3,1.3,0.4c0.3,0.1,0.5,0.1,0.5,0.1c2.1,0.6,4.4,1.3,7,2c1.3,0.3,2.6,0.7,4,1s2.8,0.6,4.3,0.9c5.8,1.3,12,2,17.7,2.7
			c2.9,0.2,5.6,0.4,8.1,0.5c2.5,0.2,4.7,0.1,6.6,0.1c3.7,0,6.1-0.1,6.1-0.1"/>
		<path class="st6" d="M66.7,46.9c0,0-2.7-1.5-7-3.8c-4.2-2.5-9.9-5.8-15.6-9.6c-2.9-1.8-5.8-3.9-8.7-5.8c-1.4-1-2.8-1.9-4.2-2.9
			c-1.3-1-2.6-2-3.9-2.9c-1.2-0.9-2.4-1.8-3.5-2.7c-1.1-0.8-2.1-1.7-3.1-2.4c-1.9-1.5-3.4-2.8-4.4-3.6"/>
		<path class="st5" d="M81.3,49c0,0-3.1-1.6-7.9-4.1c-4.7-2.6-11.1-6-17.3-9.9c-12.6-7.6-24.9-16.8-26.6-18.4"/>
	</g>
</g>
<g id="cabine">
	<path class="st7" d="M72.3,64.5V73h8.5v-8.5H72.3z M75.8,68.5h-2.5V66h2.5V68.5z M79.8,68.5h-2.5V66h2.5V68.5z"/>
</g>
<g id="remontée">
	<g>
		<path class="st7" d="M42.1,102.8c0,0,0.2,1.5-1-0.5l-1.2-1.5l-1.3-0.9L38,98.6c0,0,0.3-0.3,2.4-1.9c2.1-1.6,6-4.4,12.5-10.3
			c0,0,1.2-1.3,3.3-3.4c1-1.1,2.3-2.4,3.6-3.8c1.3-1.4,2.7-3,4.2-4.8c0,0,0.7-0.8,1.8-2.2c1.1-1.4,2.7-3.6,4.5-6.3
			c1.8-2.7,3.7-5.9,5.9-9.6c2.1-3.6,4.2-7.4,6.1-11.4c3.9-8,7.1-16.6,9.4-23.5c2.3-6.9,3.7-12,4.2-13.2c0,0-0.2,0.7-0.5,1.8
			c-0.3,1.2-0.8,2.8-1.4,4.8c-1.2,3.9-2.9,9.2-4.9,14.4S84.9,39.6,83,43.6c-1.9,4-3.4,6.8-3.6,7.5c0,0,0.3-0.6,0.8-1.6
			c0.6-1,1.3-2.4,2.2-4.2c1.8-3.5,4-8.3,6-13.3c4.1-10,7.3-20.8,8-22.3c0,0-2.6,9.8-6.3,19.7c-1.8,5-3.9,9.9-5.6,13.8
			c-1.7,3.9-3.1,6.8-3.3,7.7c0,0,1.1-2,2.8-5.2c1.6-3.2,3.7-7.5,5.6-12.1c3.9-9.1,7.1-19.2,8.1-21.3c0,0-0.5,1.7-1.2,3.7
			c-0.6,1.9-1.3,4.1-1.6,5.1c0.4-1,0.8-2.1,1.2-3.1c-0.5,1.7-1.1,3.5-1.6,5.2l-1.2,2.9c0,0,0.8-2,1.7-4s1.7-4.2,2-4.4
			c0,0,0.2-1-0.2-0.1s-1.1,3.7-3.5,11c0,0-0.9,2.1-2.5,6c-1.7,3.9-4.1,9.7-7.6,16.7c-1.8,3.5-3.9,7.4-6.2,11.6
			c-2.3,4.2-4.9,8.6-8.2,13.2c-1.6,2.3-3.4,4.5-5.4,6.7c-2,2.2-4.1,4.4-6.3,6.6C52.6,94.2,47.5,98.6,42.1,102.8z"/>
		<path class="st8" d="M37.2,98.5c0,0,1.1-0.8,3-2.2s4.6-3.4,7.6-5.9c3.1-2.5,6.4-5.6,9.9-9.1c3.5-3.4,6.6-7.3,9.5-11.5
			c0,0,1.6-2.2,3.9-5.8c1.1-1.8,2.4-3.9,3.8-6.4c0.7-1.2,1.4-2.4,2.1-3.7s1.4-2.5,2.1-3.9c5.5-10.5,9.7-22.3,10.5-24.6
			c0,0,1.1-3.1,2.3-7.2c1.3-4.1,2.7-9.1,3.9-12.9"/>
		<path class="st8" d="M79.2,49.9c-0.5,0.8-1.6,2.9-3.1,5.5c-0.8,1.3-1.6,2.8-2.5,4.4c-0.9,1.5-1.8,3.1-2.8,4.7
			c-1.9,3.1-3.9,5.9-5.5,7.9c-1.6,2-2.7,3.2-2.7,3.2c-1.7,2-4,4.4-6.8,7c-2.7,2.6-5.5,5.3-8.3,7.7c-2.7,2.3-5.3,4.4-7.3,5.8
			c-1.9,1.4-3.1,2.3-3.1,2.3"/>
		<path class="st8" d="M81.4,50c0,0,0.2-0.4,0.7-1.2c0.4-0.8,1-2,1.7-3.4c1.4-2.8,3.2-6.8,4.9-11c3.5-8.4,6.4-17.9,7.5-21.4"/>
		<path class="st8" d="M79.3,59.4c0,0,0.3-0.5,0.8-1.4s1.3-2.2,2.2-3.8c1.8-3.2,4-7.5,6.1-12c4.2-9,7.5-18.9,8.1-20.4"/>
	</g>
</g>
<g id="Texte">
	<path class="st7" d="M82.4,82.6v11.3h-1.8V82.6h-4.1V81h10.1v1.6H82.4z"/>
	<path class="st7" d="M93.8,86.4c0.4,0.5,0.6,1,0.6,1.7h-5.2c0.1-0.7,0.4-1.3,0.8-1.7c0.5-0.5,1.1-0.7,1.9-0.7S93.3,85.9,93.8,86.4z
		 M96.1,88.3c0-1.2-0.4-2.2-1.1-2.9c-0.8-0.8-1.8-1.1-3.1-1.1c-1.2,0-2.1,0.4-3,1.3c-0.9,0.9-1.4,2.2-1.4,3.7s0.5,2.7,1.4,3.6
		c0.8,0.8,1.8,1.2,3,1.2c0.8,0,1.6-0.1,2.2-0.4c0.5-0.2,0.9-0.4,1.2-0.7l-0.7-1.2c-0.6,0.6-1.4,0.8-2.4,0.8c-0.8,0-1.5-0.3-2-0.8
		c-0.6-0.6-0.9-1.4-0.9-2.5h6.8C96,89,96.1,88.7,96.1,88.3z M92.4,79.7l-1.5,2.9h1.2l2-2.9H92.4z"/>
	<path class="st7" d="M98,91.2V80.6h1.7v10.3c0,0.5,0.1,0.9,0.4,1.2c0.3,0.3,0.7,0.4,1.1,0.4V94C99.1,94.1,98,93.1,98,91.2z"/>
	<path class="st7" d="M108.9,86.4c0.4,0.5,0.6,1,0.6,1.7h-5.2c0.1-0.7,0.4-1.3,0.8-1.7c0.5-0.5,1.1-0.7,1.9-0.7
		C107.8,85.7,108.5,85.9,108.9,86.4z M111.2,88.3c0-1.2-0.4-2.2-1.1-2.9c-0.8-0.8-1.8-1.1-3.1-1.1c-1.2,0-2.1,0.4-3,1.3
		c-0.9,0.9-1.4,2.2-1.4,3.7s0.5,2.7,1.4,3.6c0.8,0.8,1.8,1.2,3,1.2c0.8,0,1.6-0.1,2.2-0.4c0.5-0.2,0.9-0.4,1.2-0.7l-0.7-1.2
		c-0.6,0.6-1.4,0.8-2.4,0.8c-0.8,0-1.5-0.3-2-0.8c-0.6-0.6-0.9-1.4-0.9-2.5h6.8C111.2,89,111.2,88.7,111.2,88.3z M107.5,79.7
		l-1.5,2.9h1.2l2-2.9H107.5z"/>
	<path class="st7" d="M113.2,89.4v-1.5h3.8v1.5H113.2z"/>
	<path class="st7" d="M127.9,81.5l-0.6,1.5c-0.6-0.4-1.4-0.6-2.6-0.6c-1.1,0-2,0.5-2.7,1.5s-1,2.2-1,3.8c0,1.5,0.3,2.6,1,3.6
		c0.7,0.9,1.6,1.4,2.7,1.4c1.2,0,2.1-0.4,2.8-1.3l1,1.3c-1,1-2.3,1.5-3.9,1.5c-1.7,0-3-0.6-4-1.8s-1.4-2.8-1.4-4.8
		c0-1.9,0.5-3.5,1.5-4.8s2.4-1.9,4-1.9C126.1,80.8,127.2,81,127.9,81.5z"/>
	<path class="st7" d="M136.2,93.9V88c0-0.7-0.2-1.3-0.5-1.7s-0.8-0.6-1.5-0.6c-0.4,0-0.8,0.1-1.2,0.4c-0.4,0.2-0.7,0.5-0.9,0.8v7
		h-1.7V80.6h1.7v4.9c0.2-0.3,0.6-0.6,1.1-0.9c0.5-0.2,1-0.3,1.5-0.3c1,0,1.8,0.3,2.3,1c0.6,0.7,0.9,1.6,0.9,2.7v5.9L136.2,93.9
		L136.2,93.9z"/>
	<path class="st7" d="M145.4,91.5c-0.7,0.8-1.4,1.2-2.3,1.2c-1.2,0-1.7-0.5-1.7-1.5c0-0.6,0.3-1.1,0.8-1.5s1.2-0.7,2.1-0.7
		c0.2,0,0.6,0.1,1.1,0.2L145.4,91.5L145.4,91.5z M146.3,93.7c0.3,0.2,0.8,0.3,1.5,0.3v-0.8c-0.5-0.3-0.8-0.8-0.8-1.6v-3.4
		c0-1.4-0.3-2.3-0.9-3c-0.6-0.6-1.6-0.9-3-0.9c-0.5,0-1,0.1-1.6,0.3s-1,0.4-1.3,0.7l0.7,1.4c0.6-0.6,1.4-0.8,2.4-0.8
		c1.4,0,2,0.8,2,2.3c-0.4-0.1-0.8-0.2-1.2-0.2c-1.3,0-2.4,0.3-3.2,1s-1.3,1.5-1.3,2.4c0,0.8,0.3,1.5,0.8,2s1.2,0.8,1.9,0.8
		c1.4,0,2.4-0.4,3.1-1.2C145.7,93.2,145.9,93.6,146.3,93.7z M146.7,82.6l-2.7-3h-0.9l-2.6,3h1.5l1.6-1.7l1.5,1.7H146.7z"/>
	<path class="st7" d="M150.3,85.8h-1.1v-1.3h1.1v-2l1.7-0.6v2.6h2.6v1.3H152v4.7c0,0.8,0.1,1.4,0.4,1.7c0.3,0.3,0.7,0.5,1.3,0.5
		c0.4,0,0.9-0.1,1.3-0.3l0.2,1.5c-0.7,0.2-1.5,0.3-2.3,0.3c-0.7,0-1.4-0.3-1.9-0.8c-0.5-0.6-0.8-1.3-0.8-2.1v-5.5H150.3z"/>
	<path class="st7" d="M162.5,86.4c0.4,0.5,0.6,1,0.6,1.7h-5.2c0.1-0.7,0.3-1.3,0.8-1.7c0.5-0.5,1.1-0.7,1.9-0.7
		C161.5,85.7,162.1,85.9,162.5,86.4z M164.8,88.3c0-1.2-0.4-2.2-1.1-2.9c-0.8-0.8-1.8-1.1-3.1-1.1c-1.2,0-2.1,0.4-3,1.3
		c-0.9,0.9-1.4,2.2-1.4,3.7s0.5,2.7,1.4,3.6c0.8,0.8,1.8,1.2,3,1.2c0.8,0,1.6-0.1,2.2-0.4c0.5-0.2,0.9-0.4,1.2-0.7l-0.7-1.2
		c-0.6,0.6-1.4,0.8-2.4,0.8c-0.8,0-1.5-0.3-2-0.8c-0.6-0.6-0.9-1.4-0.9-2.5h6.8C164.8,89,164.8,88.7,164.8,88.3z"/>
	<path class="st7" d="M171.8,91.5c-0.7,0.8-1.4,1.2-2.3,1.2c-1.2,0-1.7-0.5-1.7-1.5c0-0.6,0.3-1.1,0.8-1.5s1.2-0.7,2.1-0.7
		c0.2,0,0.6,0.1,1.1,0.2L171.8,91.5L171.8,91.5z M172.7,93.7c0.3,0.2,0.8,0.3,1.5,0.3v-0.8c-0.5-0.3-0.8-0.8-0.8-1.6v-3.4
		c0-1.4-0.3-2.3-0.9-3c-0.6-0.6-1.6-0.9-3-0.9c-0.5,0-1,0.1-1.6,0.3s-1,0.4-1.3,0.7l0.7,1.4c0.6-0.6,1.4-0.8,2.4-0.8
		c1.4,0,2,0.8,2,2.3c-0.4-0.1-0.8-0.2-1.2-0.2c-1.3,0-2.4,0.3-3.2,1s-1.3,1.5-1.3,2.4c0,0.8,0.3,1.5,0.8,2s1.2,0.8,1.9,0.8
		c1.4,0,2.4-0.4,3.1-1.2C172.1,93.2,172.3,93.6,172.7,93.7z"/>
	<path class="st7" d="M177.6,84.5v6c0,1.5,0.6,2.2,1.9,2.2c0.6,0,1.1-0.2,1.5-0.5c0.5-0.3,0.8-0.7,0.9-1.1v-6.6h1.7v9.4h-1.7v-1.3
		c-0.2,0.4-0.6,0.7-1.1,1c-0.6,0.3-1.1,0.5-1.7,0.5c-1,0-1.8-0.3-2.4-0.9c-0.5-0.6-0.8-1.4-0.8-2.5v-6.2H177.6z"/>
	<path class="st7" d="M186.1,89.4v-1.5h3.8v1.5H186.1z"/>
	<path class="st7" d="M198.5,91.8c-0.1,0.2-0.3,0.4-0.7,0.5c-0.4,0.2-0.7,0.2-1,0.2c-2.1,0-3.1-1.1-3.1-3.4c0-1,0.3-1.9,0.8-2.5
		c0.6-0.7,1.3-1,2.2-1c0.7,0,1.3,0.3,1.7,0.9v5.3H198.5z M200.1,93.9V80.6h-1.7V85c-0.5-0.5-1.2-0.7-2.2-0.7c-1.2,0-2.2,0.5-3,1.5
		s-1.3,2.2-1.3,3.6c0,1.4,0.4,2.5,1.1,3.4c0.7,0.8,1.7,1.3,2.9,1.3c1.1,0,2-0.3,2.5-0.9v0.7H200.1z"/>
	<path class="st7" d="M203.4,84.3h-1.2L202,81h1.6L203.4,84.3z"/>
	<path class="st7" d="M207.6,83.7c0.6-0.9,1.4-1.3,2.5-1.3c2.4,0,3.7,1.7,3.7,5c0,1.6-0.3,2.9-0.9,3.8c-0.6,0.9-1.5,1.4-2.7,1.4
		c-1.1,0-1.9-0.5-2.5-1.5s-0.9-2.2-0.9-3.7C206.8,85.8,207.1,84.6,207.6,83.7z M206.3,92.2c0.9,1.3,2.2,1.9,3.8,1.9
		c1.8,0,3.1-0.6,4.1-1.8s1.4-2.9,1.4-5s-0.5-3.7-1.4-4.8c-0.9-1.2-2.3-1.7-4.1-1.7c-1.6,0-2.8,0.6-3.8,1.9c-0.9,1.3-1.4,2.8-1.4,4.7
		C205,89.3,205.4,90.9,206.3,92.2z"/>
	<path class="st7" d="M223.3,86.4c0.4,0.5,0.6,1,0.6,1.7h-5.2c0.1-0.7,0.3-1.3,0.8-1.7c0.5-0.5,1.1-0.7,1.9-0.7
		C222.2,85.7,222.8,85.9,223.3,86.4z M225.6,88.3c0-1.2-0.4-2.2-1.1-2.9c-0.8-0.8-1.8-1.1-3.1-1.1c-1.2,0-2.1,0.4-3,1.3
		c-0.9,0.9-1.4,2.2-1.4,3.7s0.5,2.7,1.4,3.6c0.8,0.8,1.8,1.2,3,1.2c0.8,0,1.6-0.1,2.2-0.4c0.5-0.2,0.9-0.4,1.2-0.7l-0.7-1.2
		c-0.6,0.6-1.4,0.8-2.4,0.8c-0.8,0-1.5-0.3-2-0.8c-0.6-0.6-0.9-1.4-0.9-2.5h6.8C225.5,89,225.6,88.7,225.6,88.3z"/>
	<path class="st7" d="M233.1,93.9l-2.4-3.5l-2.5,3.5h-1.9l3.5-4.9l-3.2-4.5h1.9l2.3,3.2l2.3-3.2h1.8l-3.2,4.5l3.5,4.9H233.1z"/>
</g>
</svg>
